[2023-05-08 10:15:50.981195 | all] Пользователь сделал запрос на создание новой рассылки в базе
[2023-05-08 10:15:50.990391 | 56] Создана новая рассылка: start_time = 2023-05-08 00:00:00+00:00; stop_time = 2023-05-09 00:00:00+00:00; start_time_interval = 00:00:00; stop_time_interval = 23:59:00; text = Напоминаем об обязательном собрании завра (10.05.2023) в 17:00 в концертном зале в 3 корпусе; filter = Filter(mobile_operator_code = 929; tag = Концерт в Лужниках)
[2023-05-08 10:15:51.130512 | 56] Отправляем сообщения по рассылке
[2023-05-08 10:15:52.117860 | 56] Все сообщения успешно отправлены
