[
  {
    "model": "api.filter",
    "pk": 7,
    "fields": {
      "mobile_operator_code": "929",
      "tag": "И это тестовая запись"
    }
  },
  {
    "model": "api.filter",
    "pk": 8,
    "fields": {
      "mobile_operator_code": "977",
      "tag": "Эта, кстати, тоже"
    }
  },
  {
    "model": "api.filter",
    "pk": 9,
    "fields": {
      "mobile_operator_code": "905",
      "tag": "Тестовая запись"
    }
  }
]